module gitlab.com/amajchrzak/kulturalna_aplikacja

go 1.17

require (
	github.com/dgrijalva/jwt-go v3.2.0+incompatible
	github.com/gorilla/mux v1.8.0
	github.com/lib/pq v1.10.3
	github.com/satori/go.uuid v1.2.0
	golang.org/x/crypto v0.0.0-20210921155107-089bfa567519
)
